…
urls<- str_c("https://www.opensecrets.org/political-action-committees-pacs/foreign-connected-pacs/",years)
```
-   Map the `scrape_pac()` function over `urls` in a way that will result in a data frame called `contributions_all`.

```r
library(purrr)

contributions_all <- map_df(urls, scrape_pac)

print(contributions_all)
```

```
## # A tibble: 590 × 6
##    pac_name_affiliate            country_of_origin_pa…¹ total dems  repubs year 
##    <chr>                         <chr>                  <chr> <chr> <chr>  <chr>
##  1 7-Eleven                      Japan/Ito-Yokado       $8,5… $1,5… $7,000 2000 
##  2 ABB Group                     Switzerland/Asea Brow… $46,… $17,… $28,5… 2000 
##  3 Accenture                     UK/Accenture plc       $75,… $23,… $52,9… 2000 
##  4 ACE INA                       UK/ACE Group           $38,… $12,… $26,0… 2000 
##  5 Acuson Corp (Siemens AG)      Germany/Siemens AG     $2,0… $2,0… $0     2000 
##  6 Adtranz (DaimlerChrysler)     Germany/DaimlerChrysl… $10,… $10,… $500   2000 
##  7 AE Staley Manufacturing (Tat… UK/Tate & Lyle         $24,… $10,… $14,0… 2000 
##  8 AEGON USA (AEGON NV)          Netherlands/Aegon NV   $58,… $10,… $47,7… 2000 
##  9 AIM Management Group          UK/AMVESCAP            $25,… $10,… $15,0… 2000 
## 10 Air Liquide America           France/L'Air Liquide … $0    $0    $0     2000 
## # ℹ 580 more rows
## # ℹ abbreviated name: ¹​country_of_origin_parent_company
```
