…
-   Generate a data frame that summarizes the number of mass shootings per year.


```r
yearly_shootings_summary <- mass_shootings %>% 
  group_by(year) %>% 
  summarise(shootings=n()) %>% 
  arrange(year)

print(yearly_shootings_summary)
```

```
## # A tibble: 37 × 2
##     year shootings
##    <dbl>     <int>
##  1  1982         1
##  2  1984         2
##  3  1986         1
##  4  1987         1
##  5  1988         1
##  6  1989         2
##  7  1990         1
##  8  1991         3
##  9  1992         2
## 10  1993         4
## # ℹ 27 more rows
```


```r
library(ggplot2)
# Extract race column. Since we will be converting this to a factor, it is best to create a new dataframe with just the required data
shooter_race <- mass_shootings %>%
  select(race) %>% 
  filter(!is.na(race))

print(shooter_race)
```

```
## # A tibble: 114 × 1
##    race 
##    <chr>
##  1 White
##  2 White
##  3 Black
##  4 Black
##  5 White
##  6 White
##  7 White
##  8 Black
##  9 Black
## 10 White
## # ℹ 104 more rows
```
…
```r
# Filter the data for rows with known mental illness status
mass_shootings_with_illness <- mass_shootings[!is.na(mass_shootings$prior_mental_illness), ]

# Reshape the data into long format
reshaped_data <- pivot_longer(mass_shootings_with_illness, cols = c(fatalities, injured, total_victims),
                              names_to = "Variable", values_to = "Count")

print(reshaped_data)
```

```
## # A tibble: 237 × 13
##    case     year month   day location summary location_type male  age_of_shooter
##    <chr>   <dbl> <chr> <dbl> <chr>    <chr>   <chr>         <lgl>          <dbl>
##  1 San Jo…  2021 May      26 San Jos… "Samue… Workplace     TRUE              57
##  2 San Jo…  2021 May      26 San Jos… "Samue… Workplace     TRUE              57
##  3 San Jo…  2021 May      26 San Jos… "Samue… Workplace     TRUE              57
##  4 FedEx …  2021 Apr      15 Indiana… "Brand… Workplace     TRUE              19
##  5 FedEx …  2021 Apr      15 Indiana… "Brand… Workplace     TRUE              19
##  6 FedEx …  2021 Apr      15 Indiana… "Brand… Workplace     TRUE              19
##  7 Boulde…  2021 Mar      22 Boulder… "Ahmad… Workplace     TRUE              21
##  8 Boulde…  2021 Mar      22 Boulder… "Ahmad… Workplace     TRUE              21
##  9 Boulde…  2021 Mar      22 Boulder… "Ahmad… Workplace     TRUE              21
## 10 Odessa…  2019 Aug      31 Odessa,… "Seth … Other         TRUE              36
## # ℹ 227 more rows
## # ℹ 4 more variables: race <chr>, prior_mental_illness <chr>, Variable <chr>,
## #   Count <dbl>
```
…
